{"data":[{"id":35,"documentId":"o67bvogudokphoazvypdjv1d","name":"SANHITA GHOSH","email":"sanhitaghosh027@gmail.com","role":"alumni","roll_number":"17AT91P02","course":"Aerosol emissions over India and their impact on climate.","createdAt":"2025-09-30T18:49:14.106Z","updatedAt":"2025-09-30T19:09:33.172Z","publishedAt":"2025-09-30T19:09:33.112Z"},{"id":40,"documentId":"fmr6q9rx24no1t5d6arssnd5","name":"SUBHADIP SARKAR","email":"subhadip.sarkar.iitkgp@gmail.com","role":"phd student","roll_number":"18CL92R03","course":"Precipitable water vapour variability and climate change","createdAt":"2025-09-30T18:49:16.579Z","updatedAt":"2025-09-30T19:12:50.180Z","publishedAt":"2025-09-30T19:12:50.081Z"},{"id":39,"documentId":"ds7j115vsyxxcr93u6w4urre","name":"SUNANDA NARAYANAN","email":"sunanda.narayanan@gmail.com","role":"alumni","roll_number":"18CL92P04","course":"Atmospheric Pollution and ocean bio geochemistry","createdAt":"2025-09-30T18:49:16.151Z","updatedAt":"2025-09-30T19:13:19.854Z","publishedAt":"2025-09-30T19:13:19.733Z"},{"id":33,"documentId":"ha1z8zwe3d7t0tcrhlyk7ujb","name":"SURAJIT MURASINGH","email":"smurasingh@gmail.com","role":"alumni","roll_number":"15CL91R01","course":"Impact of clmate change and Land use/land cover change on water resources.","createdAt":"2025-09-30T18:49:13.276Z","updatedAt":"2025-09-30T19:13:37.672Z","publishedAt":"2025-09-30T19:13:37.572Z"},{"id":41,"documentId":"aaqq7l4shnkp6yhb97qpuiky","name":"SYED MOOSA ALI","email":"moosa.ali2009@gmail.com","role":"phd student","roll_number":"19CL91W03","course":"Ocean colour remote sensing applications","createdAt":"2025-09-30T18:49:16.988Z","updatedAt":"2025-09-30T19:13:51.620Z","publishedAt":"2025-09-30T19:13:51.592Z"},{"id":48,"documentId":"wvce2mii35xf0e5292jecr4y","name":"YENUGULA RASHMITHA","email":"yenugularashmitha729@gmail.com","role":"pg students","roll_number":"23CL60R06","course":"Urban Greening","createdAt":"2025-09-30T18:49:20.796Z","updatedAt":"2025-09-30T19:14:19.123Z","publishedAt":"2025-09-30T19:14:19.060Z"},{"id":52,"documentId":"yeffh1xz46s5e04gexbpa8tl","name":"ABHISHEK RATHORE","email":"abhishektoabhishek@gmail.com","role":"alumni","roll_number":"","course":"","createdAt":"2025-09-30T18:49:22.860Z","updatedAt":"2025-09-30T18:59:52.868Z","publishedAt":"2025-09-30T18:59:52.704Z"},{"id":34,"documentId":"sunof033a8f6gyngm5su4xf6","name":"AJAY SINGH","email":"ajaydhanda1993@gmail.com","role":"alumni","roll_number":"17AG91R01","course":"Agricultural Emissions","createdAt":"2025-09-30T18:49:13.702Z","updatedAt":"2025-09-30T19:01:05.171Z","publishedAt":"2025-09-30T19:01:05.116Z"},{"id":55,"documentId":"kpwkfw0obicne86ikrhnr91l","name":"AKASH JOSHI","email":"akash21@kgpian.iitkgp.ac.in","role":"alumni","roll_number":"","course":"","createdAt":"2025-09-30T18:49:24.071Z","updatedAt":"2025-09-30T19:01:26.903Z","publishedAt":"2025-09-30T19:01:26.872Z"},{"id":49,"documentId":"lmbbk7ynhlca2ewe4zjc3zv1","name":"ANAGHA K S","email":"anagha.anudevks@gmail.com","role":"phd student","roll_number":"23CL91P01","course":"Atmospheric chemistry and Agriculture","createdAt":"2025-09-30T18:49:21.220Z","updatedAt":"2025-09-30T19:01:42.395Z","publishedAt":"2025-09-30T19:01:42.343Z"},{"id":50,"documentId":"obvvhjfwyoxanosid1fg5q5o","name":"ANJALI SATHYANATH","email":"anjalisathyanath94@gmail.com","role":"phd student","roll_number":"23CL91R01","course":"Atmospheric Chemistry and Climate Interactions","createdAt":"2025-09-30T18:49:21.634Z","updatedAt":"2025-09-30T19:01:59.756Z","publishedAt":"2025-09-30T19:01:59.431Z"},{"id":57,"documentId":"r4lgkvjpdz5yh3dzgire7riu","name":"ARDRA","email":"ardradivakaran888@gmail.com","role":"alumni","roll_number":"","course":"Atmospheric Chemistry and Climatic Interactions","createdAt":"2025-09-30T18:49:25.283Z","updatedAt":"2025-09-30T19:02:46.765Z","publishedAt":"2025-09-30T19:02:46.675Z"},{"id":56,"documentId":"qg3xsrzoumqf00swpodfbczl","name":"ARDRA T S","email":"ardraputhenveedu@gmail.com","role":"alumni","roll_number":"","course":"","createdAt":"2025-09-30T18:49:24.883Z","updatedAt":"2025-09-30T19:03:14.959Z","publishedAt":"2025-09-30T19:03:14.871Z"},{"id":42,"documentId":"gvln3223wr2z030b2bx0paxz","name":"ARPITA RASTOGI","email":"rastogi.jan14@gmail.com","role":"phd student","roll_number":"19CL92W01","course":"Extreme weather and Climate Change","createdAt":"2025-09-30T18:49:17.468Z","updatedAt":"2025-09-30T19:03:39.587Z","publishedAt":"2025-09-30T19:03:39.540Z"},{"id":54,"documentId":"y4sfzt0p9os3rsmasu7as7kx","name":"ATHUL S","email":"vvsathul@gmail.com","role":"alumni","roll_number":"","course":"M.Sc Oceanography","createdAt":"2025-09-30T18:49:23.660Z","updatedAt":"2025-09-30T19:03:54.546Z","publishedAt":"2025-09-30T19:03:54.483Z"},{"id":43,"documentId":"e37dm2raw6b0ven83vpf99p9","name":"BABU RAM SHARMA","email":"baburamdeupur@gmail.com","role":"alumni","roll_number":"20CL91A01","course":"Atmospheric Pollution and Himalayas","createdAt":"2025-09-30T18:49:17.882Z","updatedAt":"2025-09-30T19:04:09.886Z","publishedAt":"2025-09-30T19:04:09.857Z"},{"id":47,"documentId":"xweq1h88zqrya4i3wv1z4go9","name":"GOPIKRISHNAN G S","email":"gopikrishnan.gs44@gmail.com","role":"alumni","roll_number":"21CL92R04","course":"Atmospheric Chemistry and Climate Interaction","createdAt":"2025-09-30T18:49:20.374Z","updatedAt":"2025-09-30T19:04:24.973Z","publishedAt":"2025-09-30T19:04:24.919Z"},{"id":51,"documentId":"p8qlstj66gawbx681cqbmsvs","name":"KRISHNAJA P B","email":"krishnajapbalachandran000@gmail.com","role":"alumni","roll_number":"","course":"","createdAt":"2025-09-30T18:49:22.456Z","updatedAt":"2025-09-30T19:06:43.576Z","publishedAt":"2025-09-30T19:06:43.510Z"},{"id":36,"documentId":"oafz7cf730nzz4sqipkrgqco","name":"KUMAR ABBHISHEK","email":"kumar.abhi602@gmail.com","role":"alumni","roll_number":"17CL91R04","course":"Carbon Sequestration","createdAt":"2025-09-30T18:49:14.516Z","updatedAt":"2025-09-30T19:07:01.790Z","publishedAt":"2025-09-30T19:07:01.732Z"},{"id":44,"documentId":"jtkrisq2fsblw6g4abxrvlaa","name":"MANSI PATHAK","email":"R.MANSIPATHAK@KGPIAN.IITKGP.AC.IN","role":"alumni","roll_number":"20CL92R02","course":"Atmospheric Chemistry and Climatic Interactions","createdAt":"2025-09-30T18:49:18.698Z","updatedAt":"2025-09-30T19:07:14.391Z","publishedAt":"2025-09-30T19:07:14.347Z"},{"id":32,"documentId":"tujv5n1if1m6eerwx2scgv1e","name":"OINDRILA NATH","email":"oindrila.nath27@gmail.com","role":"post doc","roll_number":"","course":"Sudden Stratospheric Warmings – Teleconnection with the Tropics","createdAt":"2025-09-30T18:49:12.850Z","updatedAt":"2025-09-30T19:07:29.461Z","publishedAt":"2025-09-30T19:07:29.356Z"},{"id":37,"documentId":"r91v5utik5rh3tvy0mnobfuo","name":"PANKAJ KUMAR","email":"pankaj.kmr1990@gmail.com","role":"alumni","roll_number":"17CL91R07","course":"Ozone and Climate","createdAt":"2025-09-30T18:49:14.930Z","updatedAt":"2025-09-30T19:07:45.986Z","publishedAt":"2025-09-30T19:07:45.921Z"},{"id":46,"documentId":"t0mb9va3euj7tw6nvz63ukpx","name":"RAHUL KASHYAP","email":"rahulkashyaprsm@gmail.com","role":"alumni","roll_number":"21CL91R06","course":"Atmosphere Land interactions","createdAt":"2025-09-30T18:49:19.966Z","updatedAt":"2025-09-30T19:08:17.960Z","publishedAt":"2025-09-30T19:08:17.888Z"},{"id":45,"documentId":"hz7tgws1b3odyrttbo80lntj","name":"RAHUL KUMAR","email":"Rahul.1si09cv038@kgpian.iitkgp.ac.in","role":"alumni","roll_number":"20CL92R04","course":"Atmospheric changes and Climate variability","createdAt":"2025-09-30T18:49:19.134Z","updatedAt":"2025-09-30T19:08:36.131Z","publishedAt":"2025-09-30T19:08:36.023Z"},{"id":53,"documentId":"nov18j3c4pr96tc8fdku00xk","name":"RAINA ROY","email":"rainaroy2105@gmail.com","role":"alumni","roll_number":"","course":"Atmospheric Chemistry and Climatic Interactions","createdAt":"2025-09-30T18:49:23.256Z","updatedAt":"2025-09-30T19:08:50.035Z","publishedAt":"2025-09-30T19:08:49.914Z"}],"meta":{"pagination":{"page":1,"pageSize":25,"pageCount":2,"total":27}}}